<svg width="24" height="21" viewBox="0 0 24 21" fill="none" xmlns="http://www.w3.org/2000/svg">
<path d="M22.0118 1.86279C19.4018 -0.620836 15.1537 -0.620836 12.5429 1.86223L12 2.37785L11.4578 1.86246C8.84667 -0.62093 4.59909 -0.620649 1.98802 1.86246C0.705984 3.08187 0 4.69929 0 6.41632C0 8.13391 0.705984 9.75106 1.9882 10.971L11.4203 19.9257C11.5826 20.0801 11.7915 20.1569 12 20.1569C12.2085 20.1569 12.4171 20.0797 12.5797 19.9254L22.0118 10.971C23.2937 9.75134 24 8.13396 24 6.4166C24 4.69929 23.2937 3.08215 22.0118 1.86279ZM20.8514 9.74993L12 18.1536L3.14892 9.75021C2.20434 8.85199 1.68422 7.66798 1.68422 6.4166C1.68422 5.16523 2.20434 3.98121 3.14892 3.08299C4.13419 2.14545 5.42822 1.67698 6.72253 1.67698C8.01713 1.67698 9.31172 2.14601 10.297 3.08356L11.4198 4.14996C11.7448 4.45901 12.2549 4.45901 12.5799 4.14996L13.703 3.08299C15.6738 1.20818 18.8803 1.20818 20.8511 3.08299C21.7954 3.98126 22.3158 5.16523 22.3158 6.4166C22.3158 7.66798 21.7954 8.85171 20.8514 9.74993Z" fill="#121212"/>
</svg>
